^D:\MINE\CNC\MICROCONTROLLER_SOURCES\CPPLIBS\BINDINGEXAMPLES\BINDINGEXAMPLES\STDAFX.CPP
/c /Zi /nologo /W3 /WX- /sdl /O2 /Oi /Oy- /GL /D WIN32 /D NDEBUG /D _CONSOLE /D _UNICODE /D UNICODE /Gm- /EHsc /MD /GS /Gy /fp:precise /Zc:wchar_t /Zc:forScope /Zc:inline /Yc"stdafx.h" /Fp"RELEASE\BINDINGEXAMPLES.PCH" /Fo"RELEASE\\" /Fd"RELEASE\VC140.PDB" /Gd /TP /analyze- D:\MINE\CNC\MICROCONTROLLER_SOURCES\CPPLIBS\BINDINGEXAMPLES\BINDINGEXAMPLES\STDAFX.CPP
^D:\MINE\CNC\MICROCONTROLLER_SOURCES\CPPLIBS\BINDINGEXAMPLES\BINDINGEXAMPLES\BINDINGEXAMPLES.CPP
/c /Zi /nologo /W3 /WX- /sdl /O2 /Oi /Oy- /GL /D WIN32 /D NDEBUG /D _CONSOLE /D _UNICODE /D UNICODE /Gm- /EHsc /MD /GS /Gy /fp:precise /Zc:wchar_t /Zc:forScope /Zc:inline /Yu"stdafx.h" /Fp"RELEASE\BINDINGEXAMPLES.PCH" /Fo"RELEASE\\" /Fd"RELEASE\VC140.PDB" /Gd /TP /analyze- D:\MINE\CNC\MICROCONTROLLER_SOURCES\CPPLIBS\BINDINGEXAMPLES\BINDINGEXAMPLES\BINDINGEXAMPLES.CPP
